\relax 
\@nameuse{bbl@beforestart}
\providecommand \oddpage@label [2]{}
\babel@aux{english}{}
\@writefile{toc}{\contentsline {section}{\numberline {1}Introduction (Marcos Carbonell)}{2}\protected@file@percent }
\@writefile{toc}{\contentsline {subsection}{\numberline {1.1}Motivation}{2}\protected@file@percent }
\@writefile{toc}{\contentsline {subsection}{\numberline {1.2}Available Data}{2}\protected@file@percent }
\@writefile{toc}{\contentsline {subsubsection}{\numberline {1.2.1}Economics}{2}\protected@file@percent }
\@writefile{toc}{\contentsline {subsubsection}{\numberline {1.2.2}Policies}{2}\protected@file@percent }
\citation{GP}
\citation{GP}
\@writefile{toc}{\contentsline {section}{\numberline {2}Methods (Johannes Kröner)}{3}\protected@file@percent }
\@writefile{lof}{\contentsline {figure}{\numberline {1}{\ignorespaces A illustrative example of the standard GPR. The observed data points generated by the blue dotted line (the true function) were plotted as black crosses. Given the observed/training data points, infinite possible posterior functions were obtained. We plotted 20 samples of these infinite functions with sorted colors. The mean function was obtained by the probability distribution of these functions and plotted as a red solid line. The blue shaded area around the mean function indicates the 3µ prediction variances. Taken from \cite  {GP}\relax }}{3}\protected@file@percent }
\providecommand*\caption@xref[2]{\@setref\relax\@undefined{#1}}
\newlabel{fig:GPR}{{1}{3}}
\newlabel{eq:GP}{{1}{3}}
\@writefile{toc}{\contentsline {section}{\numberline {3}Data Schema (Marcos Carbonell)}{4}\protected@file@percent }
\@writefile{toc}{\contentsline {subsection}{\numberline {3.1}Preprocessing}{4}\protected@file@percent }
\@writefile{toc}{\contentsline {subsubsection}{\numberline {3.1.1}Economic Data}{5}\protected@file@percent }
\@writefile{toc}{\contentsline {subsubsection}{\numberline {3.1.2}Policy Data}{5}\protected@file@percent }
\@writefile{toc}{\contentsline {subsection}{\numberline {3.2}Handling Missing Data}{5}\protected@file@percent }
\@writefile{toc}{\contentsline {subsubsection}{\numberline {3.2.1}Economic Data}{5}\protected@file@percent }
\@writefile{toc}{\contentsline {subsubsection}{\numberline {3.2.2}Policy Data}{5}\protected@file@percent }
\@writefile{toc}{\contentsline {subsection}{\numberline {3.3}The Dataset Class}{5}\protected@file@percent }
\@writefile{toc}{\contentsline {subsubsection}{\numberline {3.3.1}Unit Tests and TDD}{6}\protected@file@percent }
\@writefile{toc}{\contentsline {section}{\numberline {4}Building the Model (Marcos Carbonell)}{6}\protected@file@percent }
\@writefile{toc}{\contentsline {subsection}{\numberline {4.1}The Model Class}{6}\protected@file@percent }
\@writefile{toc}{\contentsline {subsection}{\numberline {4.2}Finding the Best Kernel}{6}\protected@file@percent }
\@writefile{loa}{\contentsline {algocf}{\numberline {1}{\ignorespaces Find Best Kernel\relax }}{7}\protected@file@percent }
\@writefile{lof}{\contentsline {figure}{\numberline {2}{\ignorespaces Minimal MSE of all our above kernels\relax }}{8}\protected@file@percent }
\newlabel{fig:minmse}{{2}{8}}
\@writefile{toc}{\contentsline {subsection}{\numberline {4.3}Measuring Positive and Negative Economic effects}{8}\protected@file@percent }
\@writefile{toc}{\contentsline {subsection}{\numberline {4.4}Sampling Economic Data from Policies}{10}\protected@file@percent }
\@writefile{loa}{\contentsline {algocf}{\numberline {2}{\ignorespaces Finding a policy matrix $ X'$ that maximizes economic benefit\relax }}{10}\protected@file@percent }
\@writefile{lof}{\contentsline {figure}{\numberline {3}{\ignorespaces Economic benefit of randomly sampled policies $ Y^* $\relax }}{11}\protected@file@percent }
\newlabel{fig:econbenefit}{{3}{11}}
\@writefile{toc}{\contentsline {section}{\numberline {5}Experiments (Johannes Kröner)}{11}\protected@file@percent }
\@writefile{toc}{\contentsline {subsection}{\numberline {5.1}Economic impact of policies}{12}\protected@file@percent }
\newlabel{Impact}{{5.1}{12}}
\newlabel{Tab: Impacts}{{5.1}{12}}
\@writefile{toc}{\contentsline {subsubsection}{\numberline {5.1.1}Discussion}{12}\protected@file@percent }
\@writefile{toc}{\contentsline {subsection}{\numberline {5.2}Best combination of policies}{14}\protected@file@percent }
\newlabel{Tab: BestSet}{{5.2}{15}}
\newlabel{Tab: Impacts}{{5.2}{15}}
\@writefile{toc}{\contentsline {subsubsection}{\numberline {5.2.1}Discussion}{16}\protected@file@percent }
\@writefile{toc}{\contentsline {section}{\numberline {6}Conclusion}{17}\protected@file@percent }
\@writefile{toc}{\contentsline {subsection}{\numberline {6.1}Johannes Kröner}{17}\protected@file@percent }
\@writefile{toc}{\contentsline {subsection}{\numberline {6.2}Marcos Carbonell}{17}\protected@file@percent }
