,country_name,2020-Q1,2020-Q2,2020-Q3,2020-Q4,2021-Q1,2021-Q2,2021-Q3
0,Aruba,0,2,2,1,1,2,0
1,Afghanistan,0,3,2,1,0,2,2
2,Angola,0,2,2,2,1,2,2
3,Albania,0,2,2,2,1,1,1
4,Andorra,1,2,2,2,2,1,1
5,United Arab Emirates,0,2,1,1,2,2,2
6,Argentina,0,2,3,2,2,2,2
7,Australia,0,1,3,2,2,2,2
8,Austria,1,2,1,2,2,2,2
9,Azerbaijan,0,2,2,2,2,2,2
10,Burundi,0,0,0,0,1,2,2
11,Belgium,1,2,2,2,2,2,2
12,Benin,0,2,1,1,0,0,0
13,Burkina Faso,0,1,0,0,0,0,0
14,Bangladesh,0,2,3,3,3,1,3
15,Bulgaria,0,1,1,2,2,2,2
16,Bahrain,0,2,2,2,2,2,2
17,Bahamas,0,3,3,2,2,2,2
18,Bosnia and Herzegovina,0,2,1,1,2,2,1
19,Belarus,0,0,0,0,0,0,1
20,Belize,0,2,2,2,2,2,2
21,Bermuda,0,2,1,1,1,2,1
22,Bolivia,0,3,2,2,0,0,1
23,Brazil,1,3,3,2,3,3,2
24,Barbados,0,2,1,1,2,2,2
25,Brunei,0,0,0,1,1,1,1
26,Bhutan,0,2,2,2,2,3,2
27,Botswana,0,2,1,1,1,1,1
28,Central African Republic,0,2,1,1,0,0,0
29,Canada,0,3,2,2,3,3,2
30,Switzerland,0,2,2,2,2,2,2
31,Chile,0,3,3,3,3,3,3
32,China,2,3,3,2,2,2,3
33,Cote d'Ivoire,0,2,1,0,0,0,0
34,Cameroon,0,1,0,0,1,0,0
35,Democratic Republic of Congo,0,2,2,1,1,0,2
36,Congo,0,3,3,2,1,1,1
37,Colombia,1,2,2,1,3,3,2
38,Comoros,0,0,0,0,0,0,0
39,Cape Verde,0,2,2,3,2,2,2
40,Costa Rica,0,2,2,2,2,2,2
41,Cuba,0,3,2,2,3,3,2
42,Cyprus,0,2,0,2,2,1,1
43,Czech Republic,1,2,1,2,2,2,1
44,Germany,0,2,2,2,3,2,2
45,Djibouti,0,3,2,1,1,1,1
46,Dominica,0,2,0,0,0,0,0
47,Denmark,0,2,2,1,3,2,2
48,Dominican Republic,0,3,2,2,2,2,1
49,Algeria,0,2,2,2,2,2,1
50,Ecuador,0,3,2,2,2,2,2
51,Egypt,0,2,2,2,2,2,1
52,Eritrea,0,3,3,2,3,0,0
53,Spain,0,2,2,2,2,2,1
54,Estonia,0,2,1,1,2,2,0
55,Ethiopia,0,2,2,1,1,1,1
56,Finland,0,2,1,1,2,2,1
57,Fiji,0,2,2,2,2,2,1
58,France,0,2,2,2,2,2,2
59,Faeroe Islands,0,2,2,2,1,1,1
60,Gabon,0,2,2,2,2,1,1
61,United Kingdom,0,3,2,2,3,2,2
62,Georgia,1,2,2,2,2,2,2
63,Ghana,0,1,1,1,2,2,2
64,Guinea,0,2,2,1,1,2,2
65,Gambia,0,2,2,1,0,0,0
66,Greece,0,1,1,2,2,2,1
67,Greenland,0,1,0,0,0,1,2
68,Guatemala,0,3,2,1,1,2,1
69,Guam,0,2,2,2,2,1,1
70,Guyana,0,2,1,1,1,1,1
71,Hong Kong,1,1,2,1,2,2,2
72,Honduras,0,3,2,2,3,3,3
73,Croatia,1,2,1,1,2,1,2
74,Haiti,0,2,0,0,0,0,1
75,Hungary,0,2,1,2,2,2,0
76,Indonesia,0,3,2,2,2,2,2
77,India,0,3,3,2,2,3,3
78,Ireland,0,2,2,3,3,2,2
79,Iran,1,2,2,2,3,3,2
80,Iraq,0,2,2,2,2,2,2
81,Iceland,0,1,1,2,2,1,0
82,Israel,0,2,1,2,2,2,1
83,Italy,1,2,2,3,2,3,2
84,Jamaica,0,1,1,1,2,2,2
85,Jordan,0,2,0,2,2,1,1
86,Japan,0,1,0,1,1,2,2
87,Kazakhstan,0,2,2,2,2,2,2
88,Kenya,0,2,2,1,1,1,1
89,Kyrgyz Republic,0,2,2,2,2,2,2
90,Cambodia,0,2,2,2,2,3,3
91,Kiribati,0,0,0,0,0,0,0
92,South Korea,1,2,2,1,1,1,1
93,Kuwait,0,3,1,1,2,2,2
94,Laos,0,2,1,2,0,2,2
95,Lebanon,1,2,2,2,2,2,2
96,Liberia,0,2,2,2,2,2,1
97,Libya,0,3,2,2,2,2,2
98,Liechtenstein,1,2,1,2,2,2,2
99,Sri Lanka,1,1,0,1,3,2,2
100,Lesotho,0,2,2,1,2,1,1
101,Lithuania,1,2,1,2,2,1,1
102,Luxembourg,1,2,1,1,2,1,1
103,Latvia,0,2,2,2,2,2,1
104,Macao,1,0,0,0,0,0,0
105,Morocco,0,3,1,2,2,2,2
106,Monaco,1,2,2,2,2,2,1
107,Moldova,0,2,2,1,2,2,2
108,Madagascar,0,2,2,0,0,2,2
109,Mexico,0,3,2,3,3,2,2
110,Mali,0,1,1,1,2,2,2
111,Malta,0,1,0,2,2,2,2
112,Myanmar,0,2,2,3,3,2,2
113,Mongolia,1,2,2,2,2,2,2
114,Mozambique,0,1,2,2,1,2,1
115,Mauritania,0,1,1,1,1,0,0
116,Mauritius,0,2,0,0,1,2,2
117,Malawi,0,1,2,2,2,1,1
118,Malaysia,0,2,2,3,3,2,3
119,Namibia,0,1,2,1,1,1,2
120,Niger,0,0,0,1,1,0,0
121,Nigeria,0,2,1,1,1,1,1
122,Nicaragua,0,0,0,0,0,0,0
123,Netherlands,0,2,2,2,3,2,2
124,Norway,0,2,1,2,3,2,2
125,Nepal,0,2,2,1,1,2,2
126,New Zealand,0,1,1,0,0,0,0
127,Oman,0,2,2,0,1,2,2
128,Pakistan,0,2,1,2,3,2,2
129,Panama,0,2,2,2,2,2,2
130,Peru,1,2,2,2,3,2,2
131,Philippines,1,3,2,2,2,2,2
132,Papua New Guinea,0,2,2,2,2,1,1
133,Poland,0,2,2,2,2,2,1
134,Puerto Rico,1,2,2,2,2,2,1
135,Portugal,1,2,2,2,3,2,2
136,Paraguay,1,3,2,2,1,2,2
137,Palestine,1,3,2,3,2,1,1
138,Qatar,0,2,2,1,2,2,1
139,Kosovo,0,2,2,2,2,1,1
140,Romania,0,2,1,2,2,1,1
141,Russia,0,2,2,2,1,1,2
142,Rwanda,0,2,2,2,2,2,2
143,Saudi Arabia,0,2,1,0,0,1,1
144,Sudan,0,3,2,2,1,1,0
145,Senegal,0,0,1,1,2,0,0
146,Singapore,0,2,2,2,2,2,2
147,Solomon Islands,0,2,2,1,0,0,0
148,Sierra Leone,0,1,0,0,1,2,2
149,El Salvador,0,3,2,1,1,1,1
150,San Marino,0,2,0,1,2,1,1
151,Somalia,0,1,0,0,1,1,1
152,Serbia,0,2,2,2,2,2,1
153,South Sudan,0,2,1,0,1,1,0
154,Suriname,0,1,2,2,2,2,1
155,Slovak Republic,0,1,1,2,2,2,2
156,Slovenia,0,1,2,2,2,2,1
157,Sweden,0,1,1,1,2,2,1
158,Eswatini,0,2,2,1,1,1,1
159,Seychelles,0,1,0,0,2,1,1
160,Syria,0,2,2,2,1,3,1
161,Chad,0,2,2,1,1,0,0
162,Togo,0,2,2,1,1,2,2
163,Thailand,0,2,1,1,2,1,1
164,Tajikistan,0,1,0,0,0,1,1
165,Turkmenistan,0,0,2,3,3,3,2
166,Timor-Leste,0,1,0,0,1,2,3
167,Tonga,0,1,0,0,0,0,0
168,Trinidad and Tobago,0,3,2,2,2,2,2
169,Tunisia,0,2,0,1,1,2,3
170,Turkey,0,2,2,2,2,2,2
171,Taiwan,0,0,0,0,0,1,2
172,Tanzania,0,0,0,0,0,0,0
173,Uganda,0,2,2,2,2,2,2
174,Ukraine,0,2,2,2,2,2,1
175,Uruguay,0,1,1,1,2,2,2
176,United States,0,3,2,2,2,1,1
177,Uzbekistan,0,2,2,1,0,0,1
178,Venezuela,1,3,3,2,3,3,3
179,United States Virgin Islands,0,1,1,1,1,2,1
180,Vietnam,0,2,3,2,2,2,3
181,Vanuatu,0,2,1,0,0,0,0
182,Yemen,0,2,1,0,0,1,1
183,South Africa,0,2,2,1,1,1,2
184,Zambia,0,1,2,2,1,0,2
185,Zimbabwe,0,2,1,1,3,2,2
