,country_name,2020-Q1,2020-Q2,2020-Q3,2020-Q4,2021-Q1,2021-Q2,2021-Q3
0,Aruba,0,2,2,2,0,0,0
1,Afghanistan,0,0,0,0,0,0,0
2,Angola,0,1,0,0,0,0,0
3,Albania,0,1,1,1,2,1,1
4,Andorra,0,1,2,2,2,0,1
5,United Arab Emirates,0,2,2,2,2,2,2
6,Argentina,0,2,2,2,1,1,1
7,Australia,0,2,2,2,1,0,0
8,Austria,0,2,2,2,2,2,2
9,Azerbaijan,0,0,0,0,1,0,0
10,Burundi,0,0,0,0,0,1,1
11,Belgium,0,2,1,2,1,1,1
12,Benin,0,0,1,1,1,1,1
13,Burkina Faso,0,0,0,0,1,1,2
14,Bangladesh,0,2,2,2,2,1,0
15,Bulgaria,0,2,1,1,1,1,1
16,Bahrain,1,2,2,2,2,2,2
17,Bahamas,0,2,0,0,0,1,1
18,Bosnia and Herzegovina,0,1,0,0,1,1,1
19,Belarus,0,0,0,0,0,0,0
20,Belize,0,0,2,2,2,2,2
21,Bermuda,0,0,1,0,0,0,0
22,Bolivia,0,1,0,0,1,2,2
23,Brazil,0,1,1,1,0,0,0
24,Barbados,0,1,1,2,1,1,1
25,Brunei,0,2,2,2,2,0,0
26,Bhutan,0,2,2,2,2,2,2
27,Botswana,0,2,2,0,0,0,0
28,Central African Republic,0,0,0,1,0,0,0
29,Canada,0,1,1,1,1,1,1
30,Switzerland,0,1,0,0,0,0,0
31,Chile,0,1,2,2,2,2,2
32,China,0,0,1,2,2,2,2
33,Cote d'Ivoire,0,1,2,2,2,2,2
34,Cameroon,0,0,1,1,0,0,0
35,Democratic Republic of Congo,0,2,2,0,0,0,1
36,Congo,0,1,0,0,0,0,0
37,Colombia,0,2,2,2,2,2,2
38,Comoros,0,0,0,0,0,0,0
39,Cape Verde,0,2,2,2,2,2,2
40,Costa Rica,0,1,1,1,1,1,1
41,Cuba,0,2,2,2,2,2,2
42,Cyprus,1,2,2,2,2,2,2
43,Czech Republic,0,2,1,1,1,1,1
44,Germany,0,1,0,0,0,0,0
45,Djibouti,0,0,0,0,0,0,0
46,Dominica,0,1,2,0,0,0,0
47,Denmark,0,2,2,2,0,0,0
48,Dominican Republic,0,0,0,0,0,0,0
49,Algeria,0,1,2,2,1,1,1
50,Ecuador,0,2,2,2,2,2,2
51,Egypt,0,2,2,2,2,2,2
52,Eritrea,0,1,1,1,2,0,0
53,Spain,0,2,2,2,2,2,2
54,Estonia,0,2,2,2,2,1,0
55,Ethiopia,0,1,2,1,0,0,0
56,Finland,0,0,1,1,1,1,1
57,Fiji,0,2,2,2,2,1,2
58,France,0,2,1,0,0,0,0
59,Faeroe Islands,0,2,2,2,1,0,0
60,Gabon,0,2,2,2,2,1,1
61,United Kingdom,0,2,2,2,2,2,2
62,Georgia,0,1,1,1,1,0,1
63,Ghana,0,2,0,0,0,0,0
64,Guinea,0,2,2,0,0,0,0
65,Gambia,0,0,0,0,0,0,1
66,Greece,0,1,2,2,2,2,2
67,Greenland,0,0,0,0,0,0,0
68,Guatemala,0,2,2,2,2,2,2
69,Guam,0,0,0,0,1,0,0
70,Guyana,0,1,1,1,1,1,1
71,Hong Kong,1,2,2,2,2,2,2
72,Honduras,0,2,2,2,2,2,2
73,Croatia,0,2,2,1,1,1,1
74,Haiti,0,1,1,1,1,1,1
75,Hungary,0,2,1,1,1,1,1
76,Indonesia,0,1,1,1,1,1,1
77,India,1,2,2,2,2,1,1
78,Ireland,0,2,2,2,2,2,2
79,Iran,0,2,2,1,1,1,1
80,Iraq,0,0,1,1,1,1,1
81,Iceland,0,2,2,2,2,2,2
82,Israel,0,2,2,1,1,1,1
83,Italy,0,1,2,2,2,2,2
84,Jamaica,0,1,1,1,1,1,0
85,Jordan,0,1,1,1,1,0,0
86,Japan,0,2,2,2,2,2,2
87,Kazakhstan,0,1,1,1,0,1,0
88,Kenya,0,1,1,0,1,1,0
89,Kyrgyz Republic,0,1,1,2,1,1,2
90,Cambodia,0,0,0,0,0,0,0
91,Kiribati,0,0,0,0,0,0,0
92,South Korea,0,1,1,1,1,1,1
93,Kuwait,0,1,1,1,1,1,1
94,Laos,0,2,1,1,2,2,2
95,Lebanon,0,2,2,2,2,2,1
96,Liberia,0,0,0,0,0,0,0
97,Libya,0,0,0,0,0,0,0
98,Liechtenstein,0,0,0,0,0,2,2
99,Sri Lanka,0,1,2,2,2,2,2
100,Lesotho,0,2,2,0,0,0,0
101,Lithuania,0,1,1,2,2,2,2
102,Luxembourg,0,2,2,2,2,2,2
103,Latvia,0,2,2,2,2,1,0
104,Macao,1,2,2,2,2,2,2
105,Morocco,0,2,2,1,0,0,0
106,Monaco,0,0,0,0,1,0,0
107,Moldova,0,1,1,1,1,1,1
108,Madagascar,0,0,1,1,1,0,0
109,Mexico,0,0,0,2,1,1,1
110,Mali,0,1,1,0,0,0,0
111,Malta,0,1,1,1,1,1,1
112,Myanmar,0,0,0,2,2,2,2
113,Mongolia,0,2,2,2,2,2,2
114,Mozambique,0,0,0,0,0,0,0
115,Mauritania,0,1,1,0,0,0,0
116,Mauritius,0,1,1,0,1,2,2
117,Malawi,0,2,2,2,1,1,1
118,Malaysia,0,2,2,2,2,2,2
119,Namibia,0,1,1,0,0,0,0
120,Niger,0,1,2,0,2,2,2
121,Nigeria,0,0,1,0,0,0,0
122,Nicaragua,0,0,0,0,0,0,0
123,Netherlands,0,2,2,1,1,1,1
124,Norway,0,0,0,0,0,0,0
125,Nepal,0,2,1,1,1,0,1
126,New Zealand,0,1,2,2,2,2,2
127,Oman,0,1,1,1,1,2,2
128,Pakistan,0,1,2,2,2,2,2
129,Panama,0,1,2,2,2,2,2
130,Peru,0,2,2,2,1,1,1
131,Philippines,0,1,1,2,0,0,0
132,Papua New Guinea,0,2,2,2,2,1,0
133,Poland,0,1,1,1,1,1,1
134,Puerto Rico,0,2,2,2,2,2,1
135,Portugal,0,2,2,2,2,2,2
136,Paraguay,0,2,2,2,0,0,1
137,Palestine,0,2,2,0,0,0,0
138,Qatar,0,0,1,1,1,1,0
139,Kosovo,0,2,2,2,2,2,2
140,Romania,0,2,2,2,2,2,2
141,Russia,0,2,2,1,0,0,0
142,Rwanda,0,2,2,2,2,2,2
143,Saudi Arabia,0,1,1,1,1,1,1
144,Sudan,0,1,0,0,0,0,0
145,Senegal,0,2,2,1,0,0,0
146,Singapore,0,2,2,2,2,2,2
147,Solomon Islands,0,0,1,1,0,0,0
148,Sierra Leone,0,1,1,0,0,0,0
149,El Salvador,0,2,2,2,2,1,0
150,San Marino,0,1,2,2,2,2,2
151,Somalia,0,0,0,0,0,1,1
152,Serbia,0,1,1,1,1,1,1
153,South Sudan,0,0,0,0,0,0,0
154,Suriname,0,1,2,2,2,0,1
155,Slovak Republic,0,2,2,2,2,2,2
156,Slovenia,0,2,1,1,1,1,1
157,Sweden,0,0,1,1,0,0,1
158,Eswatini,0,1,1,1,1,1,0
159,Seychelles,0,0,0,0,0,0,0
160,Syria,0,0,0,0,0,0,0
161,Chad,0,2,2,1,1,1,1
162,Togo,0,1,0,2,2,2,2
163,Thailand,0,2,1,2,2,2,2
164,Tajikistan,0,1,1,1,1,1,0
165,Turkmenistan,0,0,0,1,0,0,1
166,Timor-Leste,0,2,0,0,0,0,0
167,Tonga,0,1,0,0,0,0,0
168,Trinidad and Tobago,0,1,0,0,0,0,0
169,Tunisia,0,2,2,2,1,1,2
170,Turkey,0,1,2,2,1,0,1
171,Taiwan,0,1,1,1,1,1,1
172,Tanzania,0,0,0,0,0,0,1
173,Uganda,0,2,1,1,0,0,0
174,Ukraine,0,1,1,1,1,1,1
175,Uruguay,0,2,2,2,2,1,1
176,United States,0,1,1,1,1,1,1
177,Uzbekistan,0,1,1,1,1,2,2
178,Venezuela,0,2,2,2,2,2,2
179,United States Virgin Islands,0,0,0,0,0,1,0
180,Vietnam,0,0,1,1,1,1,0
181,Vanuatu,0,0,1,1,0,0,0
182,Yemen,0,0,0,0,0,0,0
183,South Africa,0,1,2,2,2,2,1
184,Zambia,0,1,1,1,0,0,1
185,Zimbabwe,0,0,0,0,0,0,0
