,country_name,2020-Q1,2020-Q2,2020-Q3,2020-Q4,2021-Q1,2021-Q2,2021-Q3
0,Aruba,0,0,2,3,3,3,1
1,Afghanistan,0,1,3,3,3,3,3
2,Angola,0,3,4,3,3,3,2
3,Albania,0,1,3,4,4,3,2
4,Andorra,0,2,3,3,3,3,2
5,United Arab Emirates,0,4,3,3,3,3,3
6,Argentina,0,3,3,3,3,3,3
7,Australia,0,0,3,3,2,3,3
8,Austria,0,2,2,3,3,3,2
9,Azerbaijan,0,1,3,3,4,3,2
10,Burundi,0,0,1,1,2,1,1
11,Belgium,0,1,3,3,3,3,3
12,Benin,0,3,3,4,4,3,3
13,Burkina Faso,0,2,3,3,3,3,4
14,Bangladesh,0,1,4,4,4,3,3
15,Bulgaria,0,2,2,3,3,3,3
16,Bahrain,0,3,3,3,3,3,3
17,Bahamas,0,4,3,3,3,3,3
18,Bosnia and Herzegovina,0,3,3,3,3,3,2
19,Belarus,0,1,1,2,3,3,2
20,Belize,0,2,3,3,3,3,3
21,Bermuda,0,2,3,2,2,2,2
22,Bolivia,0,1,3,3,4,4,4
23,Brazil,0,4,4,4,4,4,4
24,Barbados,0,2,2,2,3,3,2
25,Brunei,1,1,2,2,2,2,2
26,Bhutan,0,1,3,4,4,4,3
27,Botswana,0,2,3,4,3,3,3
28,Central African Republic,0,0,2,3,2,1,0
29,Canada,0,1,3,3,3,3,3
30,Switzerland,0,1,2,3,3,3,2
31,Chile,0,2,2,2,2,3,3
32,China,2,2,2,4,3,2,2
33,Cote d'Ivoire,0,3,3,3,4,4,4
34,Cameroon,0,3,3,3,3,3,3
35,Democratic Republic of Congo,0,3,4,3,3,3,3
36,Congo,0,2,3,3,3,3,3
37,Colombia,0,4,3,1,1,3,3
38,Comoros,0,1,3,3,0,0,2
39,Cape Verde,0,2,4,4,3,3,3
40,Costa Rica,0,0,2,3,3,3,3
41,Cuba,0,3,3,3,3,3,3
42,Cyprus,0,0,2,3,3,3,3
43,Czech Republic,0,3,2,3,4,2,2
44,Germany,0,2,2,2,2,2,2
45,Djibouti,0,2,3,2,2,4,3
46,Dominica,0,3,3,3,2,2,2
47,Denmark,0,0,1,2,2,2,2
48,Dominican Republic,0,2,3,3,3,3,3
49,Algeria,0,1,3,3,3,3,3
50,Ecuador,0,3,3,3,3,3,3
51,Egypt,0,1,2,3,4,4,3
52,Eritrea,0,0,1,2,2,3,3
53,Spain,0,2,3,4,4,4,2
54,Estonia,0,1,1,2,2,2,1
55,Ethiopia,0,3,3,3,3,3,3
56,Finland,0,0,1,1,1,2,2
57,Fiji,0,0,2,2,2,1,2
58,France,1,2,3,4,4,4,3
59,Faeroe Islands,0,0,1,0,2,1,2
60,Gabon,0,0,3,3,3,3,3
61,United Kingdom,0,1,2,3,3,3,3
62,Georgia,0,2,2,2,3,3,2
63,Ghana,0,1,4,4,4,4,4
64,Guinea,0,3,4,4,3,3,3
65,Gambia,0,0,2,3,3,3,3
66,Greece,0,1,2,4,4,4,3
67,Greenland,0,0,0,2,2,2,2
68,Guatemala,0,3,3,3,3,4,3
69,Guam,0,2,3,3,3,3,3
70,Guyana,0,2,3,3,3,3,2
71,Hong Kong,1,1,2,2,2,2,2
72,Honduras,0,1,3,3,3,4,3
73,Croatia,0,0,3,3,3,3,3
74,Haiti,0,2,3,3,3,3,3
75,Hungary,0,1,2,2,2,3,2
76,Indonesia,0,4,4,4,4,4,4
77,India,0,4,4,4,4,4,4
78,Ireland,0,0,2,2,3,3,3
79,Iran,0,0,2,2,3,3,2
80,Iraq,0,3,4,4,3,4,4
81,Iceland,0,0,1,2,2,2,2
82,Israel,0,3,3,4,3,2,2
83,Italy,0,4,4,4,4,4,2
84,Jamaica,0,3,3,3,3,3,3
85,Jordan,0,0,1,3,3,2,2
86,Japan,0,1,1,1,1,1,1
87,Kazakhstan,1,2,3,3,3,3,3
88,Kenya,0,3,3,2,3,3,4
89,Kyrgyz Republic,0,1,3,3,3,3,2
90,Cambodia,0,1,1,2,3,4,3
91,Kiribati,0,0,0,0,0,1,0
92,South Korea,0,2,2,3,3,3,3
93,Kuwait,0,1,3,3,3,3,3
94,Laos,1,4,4,4,4,4,3
95,Lebanon,0,2,3,3,3,3,3
96,Liberia,0,2,3,3,3,3,3
97,Libya,0,0,2,3,3,2,3
98,Liechtenstein,0,1,2,2,3,3,2
99,Sri Lanka,0,2,4,4,4,3,3
100,Lesotho,0,1,2,4,4,4,3
101,Lithuania,0,0,1,3,3,2,2
102,Luxembourg,0,3,2,3,2,2,2
103,Latvia,0,1,1,3,3,3,2
104,Macao,1,2,2,2,2,2,2
105,Morocco,0,4,4,3,3,3,3
106,Monaco,0,3,3,4,3,3,2
107,Moldova,0,1,2,2,3,3,3
108,Madagascar,0,3,4,4,4,4,3
109,Mexico,0,3,4,4,4,4,4
110,Mali,0,2,3,3,3,3,3
111,Malta,0,1,2,4,4,4,3
112,Myanmar,0,2,4,4,4,4,4
113,Mongolia,2,2,2,3,3,4,4
114,Mozambique,0,2,3,3,3,3,3
115,Mauritania,0,1,3,3,3,3,3
116,Mauritius,0,2,3,1,3,4,4
117,Malawi,0,1,2,3,3,1,2
118,Malaysia,1,2,2,3,3,3,3
119,Namibia,0,2,3,3,3,3,3
120,Niger,0,2,3,3,2,3,3
121,Nigeria,0,2,3,3,4,3,3
122,Nicaragua,0,0,0,0,1,1,2
123,Netherlands,0,1,2,2,2,2,2
124,Norway,0,0,1,2,2,2,2
125,Nepal,0,0,2,4,4,4,4
126,New Zealand,0,0,1,2,2,2,2
127,Oman,0,2,4,4,3,3,3
128,Pakistan,0,1,3,4,4,3,3
129,Panama,0,1,4,4,4,4,4
130,Peru,0,3,4,3,3,4,4
131,Philippines,0,0,2,3,3,3,3
132,Papua New Guinea,0,1,3,3,3,2,4
133,Poland,0,2,3,3,2,2,2
134,Puerto Rico,0,1,3,3,3,3,2
135,Portugal,0,1,2,3,3,3,3
136,Paraguay,0,0,2,3,3,3,2
137,Palestine,0,0,0,0,1,3,3
138,Qatar,0,2,2,2,3,4,3
139,Kosovo,0,0,4,4,4,3,2
140,Romania,0,0,1,3,4,3,3
141,Russia,0,2,2,2,2,2,3
142,Rwanda,0,2,3,3,3,3,3
143,Saudi Arabia,0,1,3,3,3,3,3
144,Sudan,0,0,0,1,1,2,0
145,Senegal,0,0,1,3,3,4,3
146,Singapore,0,4,4,4,4,4,4
147,Solomon Islands,0,0,0,1,4,0,0
148,Sierra Leone,0,2,3,3,3,3,4
149,El Salvador,0,3,3,3,4,4,4
150,San Marino,0,0,0,3,3,3,1
151,Somalia,0,0,0,2,2,3,3
152,Serbia,0,0,2,3,3,3,2
153,South Sudan,0,2,3,3,2,3,2
154,Suriname,0,0,3,4,4,4,3
155,Slovak Republic,0,2,3,4,4,3,2
156,Slovenia,0,2,2,4,4,3,2
157,Sweden,0,0,0,0,1,2,0
158,Eswatini,0,0,2,3,4,4,4
159,Seychelles,0,0,1,2,2,3,3
160,Syria,0,0,0,1,2,3,2
161,Chad,0,2,3,4,4,4,4
162,Togo,0,1,3,3,4,4,4
163,Thailand,0,3,3,3,2,3,4
164,Tajikistan,0,2,3,3,3,4,4
165,Turkmenistan,0,0,1,3,3,3,3
166,Timor-Leste,0,2,2,3,3,4,4
167,Tonga,0,0,0,0,0,0,0
168,Trinidad and Tobago,0,1,2,4,4,4,2
169,Tunisia,0,0,1,3,4,3,3
170,Turkey,0,1,4,4,4,4,3
171,Taiwan,1,2,2,2,2,3,3
172,Tanzania,0,2,2,2,1,0,0
173,Uganda,0,2,4,3,3,3,3
174,Ukraine,0,3,3,3,2,3,3
175,Uruguay,0,1,2,2,2,2,2
176,United States,0,3,4,4,4,4,3
177,Uzbekistan,0,3,3,2,3,3,3
178,Venezuela,0,3,3,4,4,4,4
179,United States Virgin Islands,0,0,0,3,3,3,1
180,Vietnam,0,2,2,2,3,3,3
181,Vanuatu,0,0,0,0,0,0,0
182,Yemen,0,0,0,1,1,1,2
183,South Africa,0,2,3,3,3,3,3
184,Zambia,0,3,3,3,3,3,3
185,Zimbabwe,0,3,4,2,4,3,3
